<?xml version="1.0" encoding="UTF-8" standalone="no"?>
<svg
   xmlns:dc="http://purl.org/dc/elements/1.1/"
   xmlns:cc="http://creativecommons.org/ns#"
   xmlns:rdf="http://www.w3.org/1999/02/22-rdf-syntax-ns#"
   xmlns:svg="http://www.w3.org/2000/svg"
   xmlns="http://www.w3.org/2000/svg"
   xmlns:sodipodi="http://sodipodi.sourceforge.net/DTD/sodipodi-0.dtd"
   xmlns:inkscape="http://www.inkscape.org/namespaces/inkscape"
   width="10cm"
   height="10cm"
   viewBox="533 281 193.33333 199.41177"
   version="1.1"
   id="svg66"
   sodipodi:docname="flow_if.svg"
   inkscape:version="0.92.4 (5da689c313, 2019-01-14)">
  <metadata
     id="metadata72">
    <rdf:RDF>
      <cc:Work
         rdf:about="">
        <dc:format>image/svg+xml</dc:format>
        <dc:type
           rdf:resource="http://purl.org/dc/dcmitype/StillImage" />
        <dc:title></dc:title>
      </cc:Work>
    </rdf:RDF>
  </metadata>
  <defs
     id="defs70" />
  <sodipodi:namedview
     pagecolor="#ffffff"
     bordercolor="#666666"
     borderopacity="1"
     objecttolerance="10"
     gridtolerance="10"
     guidetolerance="10"
     inkscape:pageopacity="0"
     inkscape:pageshadow="2"
     inkscape:window-width="1600"
     inkscape:window-height="837"
     id="namedview68"
     showgrid="false"
     inkscape:zoom="0.36730392"
     inkscape:cx="-145.8161"
     inkscape:cy="321.25984"
     inkscape:window-x="-8"
     inkscape:window-y="-8"
     inkscape:window-maximized="1"
     inkscape:current-layer="svg66" />
  <g
     id="g12"
     transform="matrix(0.5,0,0,0.5,278.60132,157.46752)">
    <polygon
       style="fill:#ffffff"
       points="534.226,329.947 619.393,282.082 704.56,329.947 619.393,377.811 "
       id="polygon2" />
    <polygon
       style="fill:none;fill-opacity:0;stroke:#000000;stroke-width:2"
       points="534.226,329.947 619.393,282.082 704.56,329.947 619.393,377.811 "
       id="polygon4" />
    <text
       style="font-style:normal;font-weight:normal;font-size:12.79979992px;font-family:sanserif;text-anchor:middle;fill:#000000"
       x="619.39301"
       y="325.84698"
       id="text10">
      <tspan
         x="619.39301"
         y="325.84698"
         id="tspan6">TEST</tspan>
      <tspan
         x="619.39301"
         y="341.84698"
         id="tspan8">Condition</tspan>
    </text>
  </g>
  <g
     id="g22"
     transform="matrix(0.5,0,0,0.5,278.60132,157.46752)">
    <rect
       style="fill:#ffffff"
       x="722"
       y="422"
       width="158"
       height="59"
       id="rect14" />
    <rect
       style="fill:none;fill-opacity:0;stroke:#000000;stroke-width:2"
       x="722"
       y="422"
       width="158"
       height="59"
       id="rect16" />
    <text
       style="font-style:normal;font-weight:normal;font-size:12.79979992px;font-family:sanserif;text-anchor:middle;fill:#000000"
       x="801"
       y="455.39999"
       id="text20">
      <tspan
         x="801"
         y="455.39999"
         id="tspan18">Instructions</tspan>
    </text>
  </g>
  <g
     id="g32"
     transform="matrix(0.5,0,0,0.5,278.60132,157.46752)">
    <rect
       style="fill:#ffffff"
       x="541.90002"
       y="560"
       width="157.10001"
       height="59"
       id="rect24" />
    <rect
       style="fill:none;fill-opacity:0;stroke:#000000;stroke-width:2"
       x="541.90002"
       y="560"
       width="157.10001"
       height="59"
       id="rect26" />
    <text
       style="font-style:normal;font-weight:normal;font-size:12.79979992px;font-family:sanserif;text-anchor:middle;fill:#000000"
       x="620.45001"
       y="593.40002"
       id="text30">
      <tspan
         x="620.45001"
         y="593.40002"
         id="tspan28">Suite du programme</tspan>
    </text>
  </g>
  <g
     id="g40"
     transform="matrix(0.5,0,0,0.5,278.60132,157.46752)">
    <polyline
       style="fill:none;fill-opacity:0;stroke:#000000;stroke-width:2"
       points="704.56,329.947 704.56,330 801,330 801,412.264 "
       id="polyline34" />
    <polygon
       style="fill:#000000"
       points="806,409.764 801,419.764 796,409.764 801,412.264 "
       id="polygon36" />
    <polygon
       style="fill:none;fill-opacity:0;stroke:#000000;stroke-width:2"
       points="806,409.764 801,419.764 796,409.764 801,412.264 "
       id="polygon38" />
  </g>
  <g
     id="g48"
     transform="matrix(0.5,0,0,0.5,278.60132,157.46752)">
    <line
       style="fill:none;fill-opacity:0;stroke:#000000;stroke-width:2"
       x1="619.39301"
       y1="377.811"
       x2="620.39398"
       y2="550.26398"
       id="line42" />
    <polygon
       style="fill:#000000"
       points="625.379,547.735 620.437,557.764 615.379,547.793 620.394,550.264 "
       id="polygon44" />
    <polygon
       style="fill:none;fill-opacity:0;stroke:#000000;stroke-width:2"
       points="625.379,547.735 620.437,557.764 615.379,547.793 620.394,550.264 "
       id="polygon46" />
  </g>
  <text
     style="font-style:normal;font-weight:normal;font-size:6.39989996px;font-family:sanserif;text-anchor:start;fill:#000000;stroke-width:0.5"
     x="651.60126"
     y="317.46753"
     id="text52">
    <tspan
       x="651.60126"
       y="317.46753"
       id="tspan50"
       style="stroke-width:0.5">VRAI</tspan>
  </text>
  <text
     style="font-style:normal;font-weight:normal;font-size:6.39989996px;font-family:sanserif;text-anchor:start;fill:#000000;stroke-width:0.5"
     x="564.05127"
     y="382.91754"
     id="text56">
    <tspan
       x="564.05127"
       y="382.91754"
       id="tspan54"
       style="stroke-width:0.5">FAUX</tspan>
  </text>
  <g
     id="g64"
     transform="matrix(0.5,0,0,0.5,278.60132,157.46752)">
    <polyline
       style="fill:none;fill-opacity:0;stroke:#000000;stroke-width:2"
       points="801,481 801,592 712.736,592 "
       id="polyline58" />
    <polygon
       style="fill:#000000"
       points="715.236,597 705.236,592 715.236,587 712.736,592 "
       id="polygon60" />
    <polygon
       style="fill:none;fill-opacity:0;stroke:#000000;stroke-width:2"
       points="715.236,597 705.236,592 715.236,587 712.736,592 "
       id="polygon62" />
  </g>
</svg>
